module main

go 1.17

require (
	cloud.google.com/go/firestore v1.6.1
	firebase.google.com/go v3.13.0+incompatible
	google.golang.org/api v0.74.0
)

require (
	cloud.google.com/go v0.100.2 // indirect
	cloud.google.com/go/compute v1.5.0 // indirect
	cloud.google.com/go/iam v0.3.0 // indirect
	cloud.google.com/go/storage v1.10.0 // indirect
	github.com/golang/groupcache v0.0.0-20200121045136-8c9f03a8e57e // indirect
	github.com/golang/protobuf v1.5.2 // indirect
	github.com/google/go-cmp v0.5.7 // indirect
	github.com/googleapis/gax-go/v2 v2.2.0 // indirect
	go.opencensus.io v0.23.0 // indirect
	golang.org/x/net v0.0.0-20220325170049-de3da57026de // indirect
	golang.org/x/oauth2 v0.0.0-20220309155454-6242fa91716a // indirect
	golang.org/x/sys v0.0.0-20220328115105-d36c6a25d886 // indirect
	golang.org/x/text v0.3.7 // indirect
	golang.org/x/xerrors v0.0.0-20200804184101-5ec99f83aff1 // indirect
	google.golang.org/appengine v1.6.7 // indirect
	google.golang.org/genproto v0.0.0-20220324131243-acbaeb5b85eb // indirect
	google.golang.org/grpc v1.45.0 // indirect
	google.golang.org/protobuf v1.27.1 // indirect
)
